{
  "page": 3,
  "perPage": 3,
  "total": 7,
  "totalPages": 3,
  "datumList": [
    {
      "id": "7",
      "label": "ggg",
      "description": "ggg",
      "otherInfo": "ggg",
      "createdAt": "1901-03-26T18:51:34.588823Z",
      "updatedAt": null,
      "user": {
        "id": "1",
        "name": "Alice Smith",
        "givenName": "Alice",
        "familyName": "Smith",
        "email": "AliceSmith@email.com",
        "createdAt": "1901-03-26T20:54:31.7299699Z",
        "updatedAt": null
      }
    }
  ]
}