{
  "page": 2,
  "perPage": 3,
  "total": 7,
  "totalPages": 3,
  "datumList": [
    {
      "id": "4",
      "label": "ddd",
      "description": "ddd",
      "otherInfo": "ddd",
      "createdAt": "1901-03-26T21:02:32.0019741Z",
      "updatedAt": null,
      "user": {
        "id": "11",
        "name": "Bob Smith",
        "givenName": "Bob",
        "familyName": "Smith",
        "email": "BobSmith@email.com",
        "createdAt": "1901-03-26T20:54:31.7299699Z",
        "updatedAt": null
      }
    },
    {
      "id": "5",
      "label": "eee",
      "description": "eee",
      "otherInfo": "eee",
      "createdAt": "1901-03-26T19:08:21.6655156Z",
      "updatedAt": null,
      "user": {
        "id": "11",
        "name": "Bob Smith",
        "givenName": "Bob",
        "familyName": "Smith",
        "email": "BobSmith@email.com",
        "createdAt": "1901-03-26T20:54:31.7299699Z",
        "updatedAt": null
      }
    },
    {
      "id": "6",
      "label": "fff",
      "description": "fff",
      "otherInfo": "fff",
      "createdAt": "1901-03-26T18:51:34.588823Z",
      "updatedAt": null,
      "user": {
        "id": "11",
        "name": "Bob Smith",
        "givenName": "Bob",
        "familyName": "Smith",
        "email": "BobSmith@email.com",
        "createdAt": "1901-03-26T20:54:31.7299699Z",
        "updatedAt": null
      }
    }
  ]
}