{
  "page": 1,
  "perPage": 3,
  "total": 7,
  "totalPages": 3,
  "datumList": [
    {
      "id": "1",
      "label": "aaa",
      "description": "aaa",
      "otherInfo": "aaa",
      "createdAt": "1901-03-26T19:18:37.781402Z",
      "updatedAt": "1901-03-26T21:03:05.3683671Z",
      "user": {
        "id": "1",
        "name": "Alice Smith",
        "givenName": "Alice",
        "familyName": "Smith",
        "email": "AliceSmith@email.com",
        "createdAt": "1901-03-26T20:54:31.7299699Z",
        "updatedAt": null
      }
    },
    {
      "id": "2",
      "label": "bbb",
      "description": "bbb",
      "otherInfo": "bbb",
      "createdAt": "1901-03-26T19:19:43.9789358Z",
      "updatedAt": "1901-03-26T21:02:59.8469004Z",
      "user": {
        "id": "1",
        "name": "Alice Smith",
        "givenName": "Alice",
        "familyName": "Smith",
        "email": "AliceSmith@email.com",
        "createdAt": "1901-03-26T20:54:31.7299699Z",
        "updatedAt": null
      }
    },
    {
      "id": "3",
      "label": "ccc",
      "description": "ccc",
      "otherInfo": "ccc",
      "createdAt": "1901-03-26T21:02:51.9473393Z",
      "updatedAt": null,
      "user": {
        "id": "11",
        "name": "Bob Smith",
        "givenName": "Bob",
        "familyName": "Smith",
        "email": "BobSmith@email.com",
        "createdAt": "1901-03-26T20:54:31.7299699Z",
        "updatedAt": null
      }
    }
  ]
}